<?xml version="1.0" encoding="utf-8"?>
<!-- Generator: Adobe Illustrator 17.1.0, SVG Export Plug-In . SVG Version: 6.00 Build 0)  -->
<!DOCTYPE svg PUBLIC "-//W3C//DTD SVG 1.1//EN" "http://www.w3.org/Graphics/SVG/1.1/DTD/svg11.dtd">
<svg version="1.1" id="Layer_1" xmlns="http://www.w3.org/2000/svg" xmlns:xlink="http://www.w3.org/1999/xlink" x="0px" y="0px"
	 viewBox="0 0 100 94" enable-background="new 0 0 100 94" xml:space="preserve">
<g>
	<defs>
		<rect id="SVGID_1_" width="100" height="94"/>
	</defs>
	<clipPath id="SVGID_2_">
		<use xlink:href="#SVGID_1_"  overflow="visible"/>
	</clipPath>
	<path fill="#8dad3e" clip-path="url(#SVGID_2_)" d="M71.6,0c-7.2,0-14.4,2.8-19.9,8.3L5.9,54.1C2,57.9,0,63.1,0,68.3c0,5.2,1.9,10.4,5.9,14.3
		c3.9,3.9,9.1,5.8,14.3,5.8s10.4-1.9,14.3-5.9l45.7-45.8C85,32,85,24.4,80.3,19.7c-4.7-4.7-12.4-4.7-17.2,0l-37.9,38l5.8,5.8
		l37.9-38c1.5-1.5,4.2-1.5,5.7-0.1c1.5,1.5,1.5,4.2,0,5.8L28.8,76.9c-4.7,4.7-12.7,4.6-17.3,0.1C6.9,72.3,7,64.4,11.7,59.7L57.5,14
		c7.7-7.7,20.9-7.9,28.6-0.2c7.8,7.8,7.7,21,0,28.8L40.4,88.4l5.6,5.6l45.8-45.8c5.5-5.5,8.3-12.7,8.3-19.9c0-7.3-2.8-14.5-8.3-20
		C86.2,2.8,78.9,0,71.6,0"/>
</g>
</svg>
